2 Välbefinnande – Stockholmsenkäten 2025
…
count (d, Kön)

# A tibble: 2 × 2
  Kön       n
  <chr> <int>
1 Kille   671
2 Tjej    719

Code
count (df, q7, q8, q9)

# A tibble: 53 × 4
   q7        q8                         q9                              n
   <chr>     <chr>                      <chr>                       <int>
 1 I Sverige I Sverige                  I Sverige                     863
 2 I Sverige I Sverige                  I ett land i övriga Europa     37
 3 I Sverige I Sverige                  I ett land i övriga Norden     16
 4 I Sverige I Sverige                  I ett land i övriga världen    77
 5 I Sverige I Sverige                  <NA>                            1
 6 I Sverige I ett land i övriga Europa I Sverige                      29
 7 I Sverige I ett land i övriga Europa I ett land i övriga Europa     28
 8 I Sverige I ett land i övriga Europa I ett land i övriga världen     6
 9 I Sverige I ett land i övriga Norden I Sverige                      13
10 I Sverige I ett land i övriga Norden I ett land i övriga Europa      3
# ℹ 43 more rows
Code
### Koda om kön till numerisk + rätt etiketter

d$Kön<-recode(d$Kön,"'Tjej'=1;'Kille'=2",as.factor=FALSE)
d$Kön <- labelled(d$Kön, labels = c("Tjej" = 1, "Kille" = 2))

d$Årskurs<-recode(d$Årskurs,"'Årskurs 9 i grundskolan'=1;'År 2 på gymnasiet'=2",as.factor=FALSE)
d$Årskurs <- labelled(d$Årskurs, labels = c("årskurs 9" = 1, "år 2" = 2))

2.2 Välbefinnande

Code
count (df, q13, q20)

# A tibble: 29 × 3
   q13         q20               n
   <chr>       <chr>         <int>
 1 Aldrig      Lika bra          1
 2 Aldrig      Lite bättre       2
 3 Aldrig      Lite sämre        5
 4 Aldrig      Mycket bättre     5
 5 Aldrig      Mycket sämre      8
 6 Ganska ofta Lika bra        203
 7 Ganska ofta Lite bättre     161
 8 Ganska ofta Lite sämre       66
 9 Ganska ofta Mycket bättre   114
10 Ganska ofta Mycket sämre     12
# ℹ 19 more rows
…
